How To Do Archaeological Science Using R
…
9.5 Reading “site” locations from a table and cropping to a study area

Alright, now that we’ve got our study area defined, we can load our “site” data (the cell towers). We can use the read_csv() function from the readr library to read the cell tower locations from a local file, which we download using download.file(). We’ll read them and then print them.

# Download cell tower location data
if(!file.exists("OUTPUT/cell_towers.csv"))
  download.file("https://raw.githubusercontent.com/bocinsky/r_tutorials/master/data/cell_towers.csv",
                destfile = "OUTPUT/cell_towers.csv")

# Load the data
cell_towers <- readr::read_csv("OUTPUT/cell_towers.csv")

cell_towers

## # A tibble: 101,388 × 5
##    `Unique System Identifier`                      `Entity Name`
##                         <int>                              <chr>
## 1                       96974        Crown Castle GT Company LLC
## 2                       96978             SBC TOWER HOLDINGS LLC
## 3                       96979       CHAMPAIGN TOWER HOLDINGS LLC
## 4                       96981                          CCATT LLC
## 5                       96989         Crown Atlantic Company LLC
## 6                       96999             SBC TOWER HOLDINGS LLC
## 7                       97007               American Towers, LLC
## 8                       97011 UNITED STATES CELLULAR CORPORATION
## 9                       97014             Crown Castle South LLC
## 10                      97022        Crown Castle GT Company LLC
## # ... with 101,378 more rows, and 3 more variables: `Height of
## #   Structure` <dbl>, Latitude <dbl>, Longitude <dbl>
…
cell_towers

## Simple feature collection with 41 features and 3 fields
## geometry type:  POINT
## dimension:      XY
## bbox:           xmin: -176.6418 ymin: 13.27747 xmax: -64.68769 ymax: 71.31036
## epsg (SRID):    4326
## proj4string:    +proj=longlat +datum=WGS84 +no_defs
## # A tibble: 41 × 4
##    `Unique System Identifier`                   `Entity Name`
##                         <int>                           <chr>
## 1                      597094               Qwest Corporation
## 2                      597409     NORTHWEST LEASE ONE, L.L.C.
## 3                      597902 SINCLAIR LEWISTON LICENSEE, LLC
## 4                      598225             Inland Cellular LLC
## 5                      598624              AVISTA CORPORATION
## 6                      598630              AVISTA CORPORATION
## 7                      599225     WASHINGTON STATE UNIVERSITY
## 8                      609045          UNION PACIFIC RAILROAD
## 9                      612883            PALOUSE COUNTRY INC.
## 10                    2606107     Washington State University
## # ... with 31 more rows, and 2 more variables: `Height of
## #   Structure` <dbl>, geometry <simple_feature>
…
# cell_towers$`Elevation (m)` <-  raster::extract(my_county_NED,   
#                                                as(cell_towers, "Spatial"))

cell_towers

## Simple feature collection with 41 features and 4 fields
## geometry type:  POINT
## dimension:      XY
## bbox:           xmin: -176.6418 ymin: 13.27747 xmax: -64.68769 ymax: 71.31036
## epsg (SRID):    4326
## proj4string:    +proj=longlat +datum=WGS84 +no_defs
## # A tibble: 41 × 5
##    `Unique System Identifier`                   `Entity Name`
##                         <int>                           <chr>
## 1                      597094               Qwest Corporation
## 2                      597409     NORTHWEST LEASE ONE, L.L.C.
## 3                      597902 SINCLAIR LEWISTON LICENSEE, LLC
## 4                      598225             Inland Cellular LLC
## 5                      598624              AVISTA CORPORATION
## 6                      598630              AVISTA CORPORATION
## 7                      599225     WASHINGTON STATE UNIVERSITY
## 8                      609045          UNION PACIFIC RAILROAD
## 9                      612883            PALOUSE COUNTRY INC.
## 10                    2606107     Washington State University
## # ... with 31 more rows, and 3 more variables: `Height of
## #   Structure` <dbl>, `Elevation (m)` <dbl>, geometry <simple_feature>
…
